%YAML 1.1
%TAG !u! tag:unity3d.com,2011:
--- !u!1045 &1
EditorBuildSettings:
  m_ObjectHideFlags: 0
  serializedVersion: 2
  m_Scenes:
  - enabled: 1
    path: Assets/Scenes/MainScene.unity
    guid: e7688cbf22e585c4ea318ceb906ad501
  - enabled: 1
    path: Assets/Scenes/XRayScene.unity
    guid: 8b9fb3b717d379543b9489e018f2653f
  - enabled: 1
    path: Assets/Scenes/BasicCelShading.unity
    guid: 298a758d575d2d649bb0d0d0ed5bae59
  - enabled: 1
    path: Assets/Scenes/OldTV.unity
    guid: 0ca76529c7babd44a9e274b83296de7b
